<?xml version="1.0" encoding="utf-8"?>
<!-- Generator: Adobe Illustrator 26.0.0, SVG Export Plug-In . SVG Version: 6.00 Build 0)  -->
<svg version="1.1" id="Layer_1" xmlns="http://www.w3.org/2000/svg" xmlns:xlink="http://www.w3.org/1999/xlink" x="0px" y="0px"
	 viewBox="0 0 27 23" style="enable-background:new 0 0 27 23;" xml:space="preserve">
<style type="text/css">
	.st0{fill:#7DBE38;}
</style>
<path class="st0" d="M17.1,23c-4.6,0-9.1,0-13.7,0c0,0-0.1,0-0.1,0c-1.3-0.3-2.1-1.3-2.1-2.5c0-2.6,0-5.2,0-7.8c0-0.8,0.4-1.4,1-1.9
	c0.2-0.1,0.3-0.2,0.6-0.1c1.9,0.8,3.7,0.7,5.5-0.3c0.2-0.1,0.3-0.1,0.5-0.1c1,0,2,0,3,0c0.2,0,0.4,0.1,0.6,0.2
	c0.9,0.6,1.9,0.8,3,0.8c0.9,0,1.7-0.2,2.5-0.6c0.2-0.1,0.4-0.1,0.5,0.1c0.6,0.5,1,1.2,1,2c0,2.6,0,5.2,0,7.8c0,0.6-0.2,1.1-0.5,1.5
	C18.4,22.6,17.8,22.9,17.1,23z"/>
<path class="st0" d="M15.7,0c0.9,0.1,1.7,0.3,2.4,0.8c1.4,0.9,2.2,2.3,2.3,4c0.2,3-2.2,5.6-5.3,5.5c-2.4-0.1-4.4-1.8-4.9-4.1
	c0-0.1,0-0.2-0.1-0.3c-0.1,0.5-0.2,1-0.5,1.5c-1,2-3.1,3.2-5.4,2.9C2.2,9.9,0.4,8.2,0,6c0-0.1,0-0.1,0-0.2c0-0.4,0-0.9,0-1.3
	c0-0.1,0-0.2,0-0.2c0.3-1.7,1.3-3,2.9-3.8C3.5,0.2,4.1,0.1,4.7,0C5,0,5.2,0,5.5,0c0,0,0.1,0,0.1,0c2,0.2,3.3,1.2,4.2,3
	c0.2,0.4,0.3,0.9,0.4,1.4c0,0,0,0,0,0c0-0.1,0-0.2,0-0.2c0.4-1.7,1.3-3,2.9-3.7C13.8,0.2,14.4,0.1,15,0C15.2,0,15.4,0,15.7,0z
	 M7.2,5.2c0-1.2-0.9-2.1-2-2.1C4,3.1,3.1,4,3.1,5.1c0,1.2,0.9,2.1,2,2.1C6.2,7.2,7.1,6.3,7.2,5.2z M17.4,5.1c0-1.2-0.9-2.1-2-2.1
	c-1.1,0-2,0.9-2.1,2c0,1.1,0.9,2.1,2.1,2.1C16.5,7.2,17.4,6.3,17.4,5.1z"/>
<path class="st0" d="M26.4,21c-0.2,0.7-0.6,1-1.2,0.9c-0.2,0-0.3-0.1-0.4-0.1c-1.4-0.8-2.8-1.7-4.3-2.5c-0.2-0.1-0.3-0.3-0.3-0.5
	c0-1.5,0-3,0-4.5c0-0.2,0.1-0.3,0.2-0.4c1.4-0.8,2.7-1.6,4.1-2.4c0.9-0.5,1.4-0.4,1.9,0.5C26.4,15,26.4,18,26.4,21z"/>
</svg>
