<svg width="172" height="158" viewBox="0 0 172 158" fill="none" xmlns="http://www.w3.org/2000/svg">
<path d="M168.344 130.563L101.473 11.0555C97.4674 3.91643 92.0515 0 86.009 0C79.9665 0 74.5283 3.91643 70.5447 11.0555L3.65208 130.563C-0.309112 137.635 -0.823843 144.46 2.33168 149.742C5.48721 155.024 11.664 158 19.8549 158H152.141C160.332 158 166.553 155.068 169.686 149.742C172.82 144.416 172.305 137.635 168.344 130.563ZM85.9866 130.428C81.1079 130.361 77.2362 126.355 77.3034 121.476C77.3705 116.598 81.3764 112.726 86.2552 112.793C91.0668 112.86 94.9385 116.799 94.9385 121.611C94.9385 126.49 90.9997 130.428 86.1209 130.428C86.0762 130.428 86.0314 130.428 85.9866 130.428ZM92.3872 93.7034C92.0515 98.4703 89.2317 102.499 86.009 102.499C82.7864 102.499 79.8994 98.4703 79.6085 93.7034L76.2291 36.3669C75.9158 31.8238 79.3399 27.9074 83.883 27.5941C84.1068 27.5717 84.3082 27.5717 84.532 27.5717H87.5756C92.1187 27.5269 95.856 31.1748 95.9008 35.7178C95.9008 35.9416 95.9008 36.1431 95.8784 36.3669L92.3872 93.7034Z" fill="#8246AF"/>
</svg>
